Introduction to R
…
ex_list
```

```
## [[1]]
## [1] 2
## 
## [[2]]
## [1] "Ayush"
## 
## [[3]]
## [1]  1 25 53  5
## 
## [[4]]
## # A tibble: 344 x 8
##    species island    bill_length_mm
##    <fct>   <fct>              <dbl>
##  1 Adelie  Torgersen           39.1
##  2 Adelie  Torgersen           39.5
##  3 Adelie  Torgersen           40.3
##  4 Adelie  Torgersen           NA  
##  5 Adelie  Torgersen           36.7
##  6 Adelie  Torgersen           39.3
##  7 Adelie  Torgersen           38.9
##  8 Adelie  Torgersen           39.2
##  9 Adelie  Torgersen           34.1
## 10 Adelie  Torgersen           42  
## # ... with 334 more rows, and 5 more
## #   variables: bill_depth_mm <dbl>,
## #   flipper_length_mm <int>,
## #   body_mass_g <int>, sex <fct>, year <int>
```
…
